# Fdb version 3
["pdflatex"] 1415315535 "ggreving.tex" "ggreving.pdf" "ggreving" 1415315537
  "/usr/local/texlive/2014/texmf-dist/tex/latex/base/article.cls" 1399675188 20496 66dd832c447553f6776fbeac03bb0580 ""
  "/usr/local/texlive/2014/texmf-dist/tex/latex/base/size10.clo" 1399675188 8967 546f1b177fd18efd7ad74d77a7bdac64 ""
  "/usr/local/texlive/2014/texmf-dist/tex/latex/psnfss/omsphv.fd" 1137110629 576 929ce6fef69dfb1784acc37a3a60b968 ""
  "/usr/local/texlive/2014/texmf-dist/tex/latex/psnfss/ot1phv.fd" 1137110629 1684 0ac4554419e828cf2c810306539da167 ""
  "ggreving.aux" 1415308581 8 a94a2480d3289e625eea47cd1b285758 ""
  "ggreving.tex" 1415315535 3474 f998cdf5db56fa37d9041df38f8f8dc0 ""
  "helvetica.sty" 1415308581 1084 ab68a9059346e95b34e0bd31d69399bd ""
  "res.cls" 1415313071 25066 8ec1e15ab4c53340bc92863668c7be49 ""
  (generated)
  "ggreving.pdf"
  "ggreving.log"
